Project 1: Wrangling, Exploration, Visualization
…
## # A tibble: 1 x 1
##   `n_distinct(Year)`
##                <int>
## 1                 57

anti_join(land_temp_data, CO2_data, by = "Year") %>% summarize(n_distinct(Year))

## # A tibble: 1 x 1
##   `n_distinct(Year)`
##                <int>
## 1                209

anti_join(land_temp_data, CO2_data, by = "Year") %>% summarize(unique(Year))

## # A tibble: 209 x 1
##    `unique(Year)`
##    <chr>         
##  1 1750          
##  2 1751          
##  3 1752          
##  4 1753          
##  5 1754          
##  6 1755          
##  7 1756          
##  8 1757          
##  9 1758          
## 10 1759          
## #  with 199 more rows
…
